^C:\USERS\SPLEE\DOCUMENTS\VISUAL STUDIO 2010\PROJECTS\OPENCVTEST\MAIN.CPP|C:\USERS\SPLEE\DOCUMENTS\VISUAL STUDIO 2010\PROJECTS\OPENCVTEST\STEP_01.CPP|C:\USERS\SPLEE\DOCUMENTS\VISUAL STUDIO 2010\PROJECTS\OPENCVTEST\STEP_02.CPP|C:\USERS\SPLEE\DOCUMENTS\VISUAL STUDIO 2010\PROJECTS\OPENCVTEST\STEP_03.CPP|C:\USERS\SPLEE\DOCUMENTS\VISUAL STUDIO 2010\PROJECTS\OPENCVTEST\STEP_04.CPP|C:\USERS\SPLEE\DOCUMENTS\VISUAL STUDIO 2010\PROJECTS\OPENCVTEST\STEP_05.CPP
C:\USERS\SPLEE\DOCUMENTS\VISUAL STUDIO 2010\PROJECTS\OPENCVTEST\DEBUG\MAIN.OBJ
C:\USERS\SPLEE\DOCUMENTS\VISUAL STUDIO 2010\PROJECTS\OPENCVTEST\DEBUG\STEP_01.OBJ
C:\USERS\SPLEE\DOCUMENTS\VISUAL STUDIO 2010\PROJECTS\OPENCVTEST\DEBUG\STEP_02.OBJ
C:\USERS\SPLEE\DOCUMENTS\VISUAL STUDIO 2010\PROJECTS\OPENCVTEST\DEBUG\STEP_03.OBJ
C:\USERS\SPLEE\DOCUMENTS\VISUAL STUDIO 2010\PROJECTS\OPENCVTEST\DEBUG\STEP_04.OBJ
C:\USERS\SPLEE\DOCUMENTS\VISUAL STUDIO 2010\PROJECTS\OPENCVTEST\DEBUG\STEP_05.OBJ
^C:\USERS\SPLEE\DOCUMENTS\VISUAL STUDIO 2010\PROJECTS\OPENCVTEST\MAIN.CPP
C:\USERS\SPLEE\DOCUMENTS\VISUAL STUDIO 2010\PROJECTS\OPENCVTEST\DEBUG\VC100.PDB
^C:\USERS\SPLEE\DOCUMENTS\VISUAL STUDIO 2010\PROJECTS\OPENCVTEST\STEP_01.CPP
C:\USERS\SPLEE\DOCUMENTS\VISUAL STUDIO 2010\PROJECTS\OPENCVTEST\DEBUG\VC100.PDB
^C:\USERS\SPLEE\DOCUMENTS\VISUAL STUDIO 2010\PROJECTS\OPENCVTEST\STEP_02.CPP
C:\USERS\SPLEE\DOCUMENTS\VISUAL STUDIO 2010\PROJECTS\OPENCVTEST\DEBUG\VC100.PDB
^C:\USERS\SPLEE\DOCUMENTS\VISUAL STUDIO 2010\PROJECTS\OPENCVTEST\STEP_03.CPP
C:\USERS\SPLEE\DOCUMENTS\VISUAL STUDIO 2010\PROJECTS\OPENCVTEST\DEBUG\VC100.PDB
^C:\USERS\SPLEE\DOCUMENTS\VISUAL STUDIO 2010\PROJECTS\OPENCVTEST\STEP_04.CPP
C:\USERS\SPLEE\DOCUMENTS\VISUAL STUDIO 2010\PROJECTS\OPENCVTEST\DEBUG\VC100.PDB
^C:\USERS\SPLEE\DOCUMENTS\VISUAL STUDIO 2010\PROJECTS\OPENCVTEST\STEP_05.CPP
C:\USERS\SPLEE\DOCUMENTS\VISUAL STUDIO 2010\PROJECTS\OPENCVTEST\DEBUG\VC100.PDB
C:\USERS\SPLEE\DOCUMENTS\VISUAL STUDIO 2010\PROJECTS\OPENCVTEST\DEBUG\STEP_05.OBJ
^C:\USERS\SPLEE\DOCUMENTS\VISUAL STUDIO 2010\PROJECTS\OPENCVTEST\MAKEFEATURE.CPP|C:\USERS\SPLEE\DOCUMENTS\VISUAL STUDIO 2010\PROJECTS\OPENCVTEST\STEP_05.CPP
C:\USERS\SPLEE\DOCUMENTS\VISUAL STUDIO 2010\PROJECTS\OPENCVTEST\DEBUG\STEP_05.OBJ
C:\USERS\SPLEE\DOCUMENTS\VISUAL STUDIO 2010\PROJECTS\OPENCVTEST\DEBUG\MAKEFEATURE.OBJ
^C:\USERS\SPLEE\DOCUMENTS\VISUAL STUDIO 2010\PROJECTS\OPENCVTEST\MAKEFEATURE.CPP
C:\USERS\SPLEE\DOCUMENTS\VISUAL STUDIO 2010\PROJECTS\OPENCVTEST\DEBUG\VC100.PDB
C:\USERS\SPLEE\DOCUMENTS\VISUAL STUDIO 2010\PROJECTS\OPENCVTEST\DEBUG\MAKEFEATURE.OBJ
^C:\USERS\SPLEE\DOCUMENTS\VISUAL STUDIO 2010\PROJECTS\OPENCVTEST\ABCDEFG.CPP
C:\USERS\SPLEE\DOCUMENTS\VISUAL STUDIO 2010\PROJECTS\OPENCVTEST\DEBUG\ABCDEFG.OBJ
C:\USERS\SPLEE\DOCUMENTS\VISUAL STUDIO 2010\PROJECTS\OPENCVTEST\DEBUG\VC100.PDB
^C:\USERS\SPLEE\DOCUMENTS\VISUAL STUDIO 2010\PROJECTS\OPENCVTEST\NOISE.CPP
C:\USERS\SPLEE\DOCUMENTS\VISUAL STUDIO 2010\PROJECTS\OPENCVTEST\DEBUG\NOISE.OBJ
C:\USERS\SPLEE\DOCUMENTS\VISUAL STUDIO 2010\PROJECTS\OPENCVTEST\DEBUG\VC100.PDB
^C:\USERS\SPLEE\DOCUMENTS\VISUAL STUDIO 2010\PROJECTS\OPENCVTEST\비전OPENCV.CPP
C:\USERS\SPLEE\DOCUMENTS\VISUAL STUDIO 2010\PROJECTS\OPENCVTEST\DEBUG\비전OPENCV.OBJ
C:\USERS\SPLEE\DOCUMENTS\VISUAL STUDIO 2010\PROJECTS\OPENCVTEST\DEBUG\VC100.PDB
